{
  "items": [
    {
      "external_urls": {
        "spotify": "https://open.spotify.com/artist/5skauLarl8sqqUFypECtP4"
      },
      "followers": {
        "href": null,
        "total": 0
      },
      "genres": ["chanson"],
      "href": "https://api.spotify.com/v1/artists/5skauLarl8sqqUFypECtP4",
      "id": "5skauLarl8sqqUFypECtP4",
      "images": [
        {
          "height": 640,
          "url": "https://i.scdn.co/image/ab6761610000e5eb0ee846203ab5a01e80995fe9",
          "width": 640
        },
        {
          "height": 320,
          "url": "https://i.scdn.co/image/ab676161000051740ee846203ab5a01e80995fe9",
          "width": 320
        },
        {
          "height": 160,
          "url": "https://i.scdn.co/image/ab6761610000f1780ee846203ab5a01e80995fe9",
          "width": 160
        }
      ],
      "name": "Michel Berger",
      "popularity": 53,
      "type": "artist",
      "uri": "spotify:artist:5skauLarl8sqqUFypECtP4"
    },
    {
      "external_urls": {
        "spotify": "https://open.spotify.com/artist/73mSg0dykFyhvU96tb5xQV"
      },
      "followers": {
        "href": null,
        "total": 0
      },
      "genres": [],
      "href": "https://api.spotify.com/v1/artists/73mSg0dykFyhvU96tb5xQV",
      "id": "73mSg0dykFyhvU96tb5xQV",
      "images": [
        {
          "height": 640,
          "url": "https://i.scdn.co/image/ab6761610000e5eb83261376259ef7c98abb6673",
          "width": 640
        },
        {
          "height": 320,
          "url": "https://i.scdn.co/image/ab6761610000517483261376259ef7c98abb6673",
          "width": 320
        },
        {
          "height": 160,
          "url": "https://i.scdn.co/image/ab6761610000f17883261376259ef7c98abb6673",
          "width": 160
        }
      ],
      "name": "Hermanos Gutiérrez",
      "popularity": 64,
      "type": "artist",
      "uri": "spotify:artist:73mSg0dykFyhvU96tb5xQV"
    },
    {
      "external_urls": {
        "spotify": "https://open.spotify.com/artist/6qqNVTkY8uBg9cP3Jd7DAH"
      },
      "followers": {
        "href": null,
        "total": 0
      },
      "genres": ["art pop", "pop"],
      "href": "https://api.spotify.com/v1/artists/6qqNVTkY8uBg9cP3Jd7DAH",
      "id": "6qqNVTkY8uBg9cP3Jd7DAH",
      "images": [
        {
          "height": 640,
          "url": "https://i.scdn.co/image/ab6761610000e5ebd8b9980db67272cb4d2c3daf",
          "width": 640
        },
        {
          "height": 320,
          "url": "https://i.scdn.co/image/ab67616100005174d8b9980db67272cb4d2c3daf",
          "width": 320
        },
        {
          "height": 160,
          "url": "https://i.scdn.co/image/ab6761610000f178d8b9980db67272cb4d2c3daf",
          "width": 160
        }
      ],
      "name": "Billie Eilish",
      "popularity": 88,
      "type": "artist",
      "uri": "spotify:artist:6qqNVTkY8uBg9cP3Jd7DAH"
    },
    {
      "external_urls": {
        "spotify": "https://open.spotify.com/artist/4uFZsG1vXrPcvnZ4iSQyrx"
      },
      "followers": {
        "href": null,
        "total": 0
      },
      "genres": ["pixel"],
      "href": "https://api.spotify.com/v1/artists/4uFZsG1vXrPcvnZ4iSQyrx",
      "id": "4uFZsG1vXrPcvnZ4iSQyrx",
      "images": [
        {
          "height": 640,
          "url": "https://i.scdn.co/image/ab6761610000e5eba9b8234e3071836212561d19",
          "width": 640
        },
        {
          "height": 320,
          "url": "https://i.scdn.co/image/ab67616100005174a9b8234e3071836212561d19",
          "width": 320
        },
        {
          "height": 160,
          "url": "https://i.scdn.co/image/ab6761610000f178a9b8234e3071836212561d19",
          "width": 160
        }
      ],
      "name": "C418",
      "popularity": 71,
      "type": "artist",
      "uri": "spotify:artist:4uFZsG1vXrPcvnZ4iSQyrx"
    },
    {
      "external_urls": {
        "spotify": "https://open.spotify.com/artist/22HVxZPA6UhBp8wahxDA6I"
      },
      "followers": {
        "href": null,
        "total": 0
      },
      "genres": ["chanson", "ye ye"],
      "href": "https://api.spotify.com/v1/artists/22HVxZPA6UhBp8wahxDA6I",
      "id": "22HVxZPA6UhBp8wahxDA6I",
      "images": [
        {
          "height": 1000,
          "url": "https://i.scdn.co/image/e9bb7a31f3253eceb77917a90dab1812982c3716",
          "width": 1000
        },
        {
          "height": 640,
          "url": "https://i.scdn.co/image/27ac44d5e97f30c351012b39a882d2cfaa417685",
          "width": 640
        },
        {
          "height": 200,
          "url": "https://i.scdn.co/image/8f41d664d7f5a84fc2daf966dfdf41390b652187",
          "width": 200
        },
        {
          "height": 64,
          "url": "https://i.scdn.co/image/cf7000473b0eae2a2022528b59d5255556a69e11",
          "width": 64
        }
      ],
      "name": "France Gall",
      "popularity": 56,
      "type": "artist",
      "uri": "spotify:artist:22HVxZPA6UhBp8wahxDA6I"
    },
    {
      "external_urls": {
        "spotify": "https://open.spotify.com/artist/4kwxTgCKMipBKhSnEstNKj"
      },
      "followers": {
        "href": null,
        "total": 0
      },
      "genres": [
        "alternative dance",
        "alternative rock",
        "art pop",
        "baltimore indie",
        "chillwave",
        "dance-punk",
        "dream pop",
        "experimental pop",
        "freak folk",
        "indie rock",
        "neo-synthpop",
        "noise pop"
      ],
      "href": "https://api.spotify.com/v1/artists/4kwxTgCKMipBKhSnEstNKj",
      "id": "4kwxTgCKMipBKhSnEstNKj",
      "images": [
        {
          "height": 640,
          "url": "https://i.scdn.co/image/ab6761610000e5eb18820542e3e60a677899c7dd",
          "width": 640
        },
        {
          "height": 320,
          "url": "https://i.scdn.co/image/ab6761610000517418820542e3e60a677899c7dd",
          "width": 320
        },
        {
          "height": 160,
          "url": "https://i.scdn.co/image/ab6761610000f17818820542e3e60a677899c7dd",
          "width": 160
        }
      ],
      "name": "Animal Collective",
      "popularity": 49,
      "type": "artist",
      "uri": "spotify:artist:4kwxTgCKMipBKhSnEstNKj"
    },
    {
      "external_urls": {
        "spotify": "https://open.spotify.com/artist/3rxeQlsv0Sc2nyYaZ5W71T"
      },
      "followers": {
        "href": null,
        "total": 0
      },
      "genres": ["cool jazz", "jazz", "jazz trumpet", "vocal jazz"],
      "href": "https://api.spotify.com/v1/artists/3rxeQlsv0Sc2nyYaZ5W71T",
      "id": "3rxeQlsv0Sc2nyYaZ5W71T",
      "images": [
        {
          "height": 817,
          "url": "https://i.scdn.co/image/8fd767aa91ecd8e5720b424812e2a17586834ac2",
          "width": 1000
        },
        {
          "height": 523,
          "url": "https://i.scdn.co/image/baa4a09ca62a85dab5de4a8e9d635571b9cfac9d",
          "width": 640
        },
        {
          "height": 163,
          "url": "https://i.scdn.co/image/5c15cad68e6584825963e484deca44c12e118dfb",
          "width": 199
        },
        {
          "height": 52,
          "url": "https://i.scdn.co/image/ec483daff287cc9cdb4a42cfa5bcd350a50bd89a",
          "width": 64
        }
      ],
      "name": "Chet Baker",
      "popularity": 65,
      "type": "artist",
      "uri": "spotify:artist:3rxeQlsv0Sc2nyYaZ5W71T"
    },
    {
      "external_urls": {
        "spotify": "https://open.spotify.com/artist/64EHXDoln95lnccszdPum0"
      },
      "followers": {
        "href": null,
        "total": 0
      },
      "genres": ["alt z", "indie electropop", "modern alternative pop"],
      "href": "https://api.spotify.com/v1/artists/64EHXDoln95lnccszdPum0",
      "id": "64EHXDoln95lnccszdPum0",
      "images": [
        {
          "height": 640,
          "url": "https://i.scdn.co/image/ab6761610000e5ebce8b127d23f4bc04d7195e31",
          "width": 640
        },
        {
          "height": 320,
          "url": "https://i.scdn.co/image/ab67616100005174ce8b127d23f4bc04d7195e31",
          "width": 320
        },
        {
          "height": 160,
          "url": "https://i.scdn.co/image/ab6761610000f178ce8b127d23f4bc04d7195e31",
          "width": 160
        }
      ],
      "name": "Royal & the Serpent",
      "popularity": 58,
      "type": "artist",
      "uri": "spotify:artist:64EHXDoln95lnccszdPum0"
    },
    {
      "external_urls": {
        "spotify": "https://open.spotify.com/artist/38u18VoGaIwVeSyVoA0eU5"
      },
      "followers": {
        "href": null,
        "total": 0
      },
      "genres": ["art pop", "dream pop", "melancholia"],
      "href": "https://api.spotify.com/v1/artists/38u18VoGaIwVeSyVoA0eU5",
      "id": "38u18VoGaIwVeSyVoA0eU5",
      "images": [
        {
          "height": 1000,
          "url": "https://i.scdn.co/image/ab6772690000c46c5668791a45d7abbac72a3946",
          "width": 1000
        },
        {
          "height": 640,
          "url": "https://i.scdn.co/image/ab6772690000dd225668791a45d7abbac72a3946",
          "width": 640
        },
        {
          "height": 200,
          "url": "https://i.scdn.co/image/ab6772690000bac35668791a45d7abbac72a3946",
          "width": 200
        },
        {
          "height": 64,
          "url": "https://i.scdn.co/image/ab67726900008f745668791a45d7abbac72a3946",
          "width": 64
        }
      ],
      "name": "Hope Sandoval & The Warm Inventions",
      "popularity": 44,
      "type": "artist",
      "uri": "spotify:artist:38u18VoGaIwVeSyVoA0eU5"
    },
    {
      "external_urls": {
        "spotify": "https://open.spotify.com/artist/7p0odCZxOVz684NjXt1dEf"
      },
      "followers": {
        "href": null,
        "total": 0
      },
      "genres": ["acidcore"],
      "href": "https://api.spotify.com/v1/artists/7p0odCZxOVz684NjXt1dEf",
      "id": "7p0odCZxOVz684NjXt1dEf",
      "images": [
        {
          "height": 640,
          "url": "https://i.scdn.co/image/ab6761610000e5ebfc5801ec10f3064787bbf38d",
          "width": 640
        },
        {
          "height": 320,
          "url": "https://i.scdn.co/image/ab67616100005174fc5801ec10f3064787bbf38d",
          "width": 320
        },
        {
          "height": 160,
          "url": "https://i.scdn.co/image/ab6761610000f178fc5801ec10f3064787bbf38d",
          "width": 160
        }
      ],
      "name": "Le Wanski",
      "popularity": 45,
      "type": "artist",
      "uri": "spotify:artist:7p0odCZxOVz684NjXt1dEf"
    }
  ],
  "total": 50,
  "limit": 10,
  "offset": 0,
  "href": "https://api.spotify.com/v1/me/top/artists?limit=10&offset=0&time_range=short_term",
  "next": "https://api.spotify.com/v1/me/top/artists?limit=10&offset=10&time_range=short_term",
  "previous": null
}
